<?xml version="1.0" encoding="UTF-8" standalone="no"?>
<!-- Created with Inkscape (http://www.inkscape.org/) -->

<svg
   xmlns:dc="http://purl.org/dc/elements/1.1/"
   xmlns:cc="http://creativecommons.org/ns#"
   xmlns:rdf="http://www.w3.org/1999/02/22-rdf-syntax-ns#"
   xmlns:svg="http://www.w3.org/2000/svg"
   xmlns="http://www.w3.org/2000/svg"
   xmlns:sodipodi="http://sodipodi.sourceforge.net/DTD/sodipodi-0.dtd"
   xmlns:inkscape="http://www.inkscape.org/namespaces/inkscape"
   width="131.82645mm"
   height="127.48656mm"
   viewBox="0 0 467.10157 451.72404"
   id="svg2"
   version="1.1"
   inkscape:version="0.92.3 (2405546, 2018-03-11)"
   sodipodi:docname="Logo-DirectMairie.svg"
   inkscape:export-filename="/home/mfaure/Documents/Adullact/Dossier-0permanent/Communication/Logos Logiciels/Logo-DirectMairie-w400.png"
   inkscape:export-xdpi="77.07"
   inkscape:export-ydpi="77.07">
  <defs
     id="defs4" />
  <sodipodi:namedview
     id="base"
     pagecolor="#ffffff"
     bordercolor="#666666"
     borderopacity="1.0"
     inkscape:pageopacity="0.0"
     inkscape:pageshadow="2"
     inkscape:zoom="1.2349952"
     inkscape:cx="302.22085"
     inkscape:cy="181.75919"
     inkscape:document-units="px"
     inkscape:current-layer="layer2"
     showgrid="false"
     showguides="true"
     inkscape:guide-bbox="true"
     inkscape:window-width="1855"
     inkscape:window-height="1056"
     inkscape:window-x="1985"
     inkscape:window-y="24"
     inkscape:window-maximized="1"
     fit-margin-top="0"
     fit-margin-left="0"
     fit-margin-right="0"
     fit-margin-bottom="0">
    <inkscape:grid
       type="xygrid"
       id="grid4176"
       originx="-55.778021"
       originy="-46.666073" />
  </sodipodi:namedview>
  <metadata
     id="metadata7">
    <rdf:RDF>
      <cc:Work
         rdf:about="">
        <dc:format>image/svg+xml</dc:format>
        <dc:type
           rdf:resource="http://purl.org/dc/dcmitype/StillImage" />
        <dc:title></dc:title>
      </cc:Work>
    </rdf:RDF>
  </metadata>
  <g
     inkscape:label="ROND"
     inkscape:groupmode="layer"
     id="layer1"
     transform="translate(-55.778021,-553.9721)">
    <ellipse
       style="opacity:1;fill:none;fill-opacity:1;stroke:#00528c;stroke-width:10.19999981;stroke-linecap:round;stroke-linejoin:round;stroke-miterlimit:4;stroke-dasharray:none;stroke-opacity:1"
       id="path4263"
       cx="289.3288"
       cy="779.83411"
       rx="228.45078"
       ry="220.76201" />
  </g>
  <g
     inkscape:groupmode="layer"
     id="layer5"
     inkscape:label="Fleche bas"
     transform="translate(-55.778021,-553.9721)"
     sodipodi:insensitive="true">
    <path
       style="fill:#00528c;fill-opacity:1;fill-rule:evenodd;stroke:#00528c;stroke-width:10.19999981;stroke-linecap:butt;stroke-linejoin:miter;stroke-miterlimit:4;stroke-dasharray:none;stroke-opacity:1"
       d="m 437.75127,947.92245 -1.52315,42.51861 -39.49343,-13.9242"
       id="path4188-0"
       inkscape:connector-curvature="0"
       sodipodi:nodetypes="ccc" />
  </g>
  <g
     inkscape:groupmode="layer"
     id="layer2"
     inkscape:label="Direct"
     transform="translate(-55.778021,-553.9721)">
    <g
       transform="translate(-76.559948,232.55374)"
       style="font-style:normal;font-weight:normal;font-size:15px;line-height:125%;font-family:sans-serif;letter-spacing:0px;word-spacing:0px;fill:#000000;fill-opacity:1;stroke:none;stroke-width:1px;stroke-linecap:butt;stroke-linejoin:miter;stroke-opacity:1"
       id="flowRoot4156-3">
      <path
         d="m 196.54468,464.08875 h 22.02148 q 18.81836,0 28.92822,9.35913 10.66041,9.70947 10.66041,27.12646 0,20.97046 -15.0647,30.67993 -9.45923,6.05591 -25.22461,6.05591 h -21.3208 z m 9.00879,65.31372 h 11.56128 q 31.38061,0 31.38061,-28.82813 0,-28.67798 -30.83008,-28.67798 h -12.11181 z"
         style="font-style:normal;font-variant:normal;font-weight:normal;font-stretch:normal;font-size:102.5px;font-family:TakaoPGothic;-inkscape-font-specification:TakaoPGothic;letter-spacing:-2.82999945px;fill:#00528c;fill-opacity:1"
         id="path4154"
         inkscape:connector-curvature="0" />
      <path
         d="m 351.64152,537.31018 h -10.8606 q -4.104,-9.30908 -9.05884,-18.16772 -3.9038,-7.15699 -7.75756,-10.05982 -4.70459,-3.50342 -11.51123,-3.50342 h -7.25708 v 31.73096 h -9.00879 v -73.22143 h 22.42187 q 11.26099,0 17.96753,4.104 8.90869,5.35522 8.90869,15.96558 0,9.55932 -8.10791,14.7644 -4.4043,3.00293 -10.5603,3.90381 v 0.30029 q 6.70654,2.3523 11.61133,9.85962 4.3042,6.60645 13.21289,24.32373 z m -46.44531,-38.68774 h 11.16088 q 19.81934,0 19.81934,-14.26392 0,-13.01269 -18.86841,-13.01269 h -12.11181 z"
         style="font-style:normal;font-variant:normal;font-weight:normal;font-stretch:normal;font-size:102.5px;font-family:TakaoPGothic;-inkscape-font-specification:TakaoPGothic;letter-spacing:-2.82999945px;fill:#00528c;fill-opacity:1"
         id="path4156"
         inkscape:connector-curvature="0" />
      <path
         d="m 406.86815,537.31018 h -47.0459 v -73.22143 h 45.79468 v 7.80761 h -36.88599 v 23.97339 h 32.68189 v 7.35718 h -32.68189 v 26.17554 h 38.13721 z"
         style="font-style:normal;font-variant:normal;font-weight:normal;font-stretch:normal;font-size:102.5px;font-family:TakaoPGothic;-inkscape-font-specification:TakaoPGothic;letter-spacing:-2.82999945px;fill:#00528c;fill-opacity:1"
         id="path4158"
         inkscape:connector-curvature="0" />
      <path
         d="m 478.01033,520.89417 q -2.75269,6.30615 -7.90771,10.5603 -8.75855,7.35718 -20.82032,7.35718 -15.56518,0 -25.625,-10.9607 -9.30908,-10.26001 -9.30908,-26.87622 0,-17.2168 10.15991,-27.97729 9.70948,-10.36011 24.37378,-10.36011 20.46997,0 28.62793,17.56714 l -8.20801,3.80371 q -6.156,-13.56323 -20.31982,-13.56323 -10.41016,0 -17.41699,7.90771 -7.35718,8.45825 -7.35718,22.77222 0,12.36206 6.2561,20.26977 7.30713,9.35913 18.86841,9.35913 14.31397,0 21.07056,-13.56323 z"
         style="font-style:normal;font-variant:normal;font-weight:normal;font-stretch:normal;font-size:102.5px;font-family:TakaoPGothic;-inkscape-font-specification:TakaoPGothic;letter-spacing:-2.82999945px;fill:#00528c;fill-opacity:1"
         id="path4160"
         inkscape:connector-curvature="0" />
      <path
         d="m 541.64517,471.99646 h -27.07641 v 65.31372 h -9.10889 v -65.31372 h -26.22559 v -7.90771 h 62.41089 z"
         style="font-style:normal;font-variant:normal;font-weight:normal;font-stretch:normal;font-size:102.5px;font-family:TakaoPGothic;-inkscape-font-specification:TakaoPGothic;letter-spacing:-2.82999945px;fill:#00528c;fill-opacity:1"
         id="path4162"
         inkscape:connector-curvature="0" />
    </g>
    <g
       transform="translate(-76.559948,328.55374)"
       style="font-style:normal;font-weight:normal;font-size:15px;line-height:125%;font-family:sans-serif;letter-spacing:2.45000005px;word-spacing:0px;fill:#000000;fill-opacity:1;stroke:none;stroke-width:1px;stroke-linecap:butt;stroke-linejoin:miter;stroke-opacity:1"
       id="flowRoot4168-3">
      <path
         d="m 269.21558,537.31018 h -8.8086 v -39.58862 q 0,-11.96167 0.60059,-25.625 h -0.40039 q -4.00391,11.56128 -8.7085,23.3728 l -16.01562,39.43848 h -6.6565 l -16.16577,-40.28931 q -5.00488,-12.51221 -8.20801,-22.62207 h -0.40039 q 0.60059,16.11572 0.60059,25.4248 v 39.88892 h -8.5083 v -73.22143 h 12.9126 l 17.41699,43.04199 q 3.10302,7.55737 5.85571,16.61621 h 0.30029 q 2.2522,-8.15796 5.55542,-16.41602 l 17.3169,-43.24218 h 13.31299 z"
         style="font-style:normal;font-variant:normal;font-weight:normal;font-stretch:normal;font-size:102.5px;font-family:TakaoPGothic;-inkscape-font-specification:TakaoPGothic;letter-spacing:2.8599999px;fill:#00528c;fill-opacity:1"
         id="path4165"
         inkscape:connector-curvature="0" />
      <path
         d="m 347.09877,537.31018 h -9.80957 l -8.10791,-21.57104 h -29.42871 l -7.95776,21.57104 h -9.75953 l 29.02832,-73.72192 h 7.25708 z m -20.46997,-28.82812 -7.40723,-19.469 q -3.05298,-8.15796 -4.60449,-14.7644 h -0.30029 q -1.80176,7.00683 -4.70459,14.7644 l -7.25708,19.469 z"
         style="font-style:normal;font-variant:normal;font-weight:normal;font-stretch:normal;font-size:102.5px;font-family:TakaoPGothic;-inkscape-font-specification:TakaoPGothic;letter-spacing:2.8599999px;fill:#00528c;fill-opacity:1"
         id="path4167"
         inkscape:connector-curvature="0" />
      <path
         d="m 369.52786,537.31018 h -9.10888 v -73.22143 h 9.10888 z"
         style="font-style:normal;font-variant:normal;font-weight:normal;font-stretch:normal;font-size:102.5px;font-family:TakaoPGothic;-inkscape-font-specification:TakaoPGothic;letter-spacing:2.8599999px;fill:#00528c;fill-opacity:1"
         id="path4169"
         inkscape:connector-curvature="0" />
      <path
         d="M 447.96159,537.31018 H 437.101 q -4.10401,-9.30908 -9.05884,-18.16772 -3.90381,-7.15699 -7.75757,-10.05982 -4.70459,-3.50342 -11.51123,-3.50342 h -7.25708 v 31.73096 h -9.00879 v -73.22143 h 22.42188 q 11.26098,0 17.96753,4.104 8.90869,5.35522 8.90869,15.96558 0,9.55932 -8.10791,14.7644 -4.4043,3.00293 -10.56031,3.90381 v 0.30029 q 6.70655,2.3523 11.61133,9.85962 4.3042,6.60645 13.21289,24.32373 z m -46.44531,-38.68774 h 11.16089 q 19.81934,0 19.81934,-14.26392 0,-13.01269 -18.86841,-13.01269 h -12.11182 z"
         style="font-style:normal;font-variant:normal;font-weight:normal;font-stretch:normal;font-size:102.5px;font-family:TakaoPGothic;-inkscape-font-specification:TakaoPGothic;letter-spacing:2.8599999px;fill:#00528c;fill-opacity:1"
         id="path4171"
         inkscape:connector-curvature="0" />
      <path
         d="m 471.34161,537.31018 h -9.10888 v -73.22143 h 9.10888 z"
         style="font-style:normal;font-variant:normal;font-weight:normal;font-stretch:normal;font-size:102.5px;font-family:TakaoPGothic;-inkscape-font-specification:TakaoPGothic;letter-spacing:2.8599999px;fill:#00528c;fill-opacity:1"
         id="path4173"
         inkscape:connector-curvature="0" />
      <path
         d="m 541.36713,537.31018 h -47.0459 v -73.22143 h 45.79468 v 7.80761 h -36.88599 v 23.97339 h 32.68188 v 7.35718 h -32.68188 v 26.17554 h 38.13721 z"
         style="font-style:normal;font-variant:normal;font-weight:normal;font-stretch:normal;font-size:102.5px;font-family:TakaoPGothic;-inkscape-font-specification:TakaoPGothic;letter-spacing:2.8599999px;fill:#00528c;fill-opacity:1"
         id="path4175"
         inkscape:connector-curvature="0" />
    </g>
  </g>
  <g
     inkscape:groupmode="layer"
     id="layer3"
     inkscape:label="MAIRIE"
     transform="translate(-55.778021,-553.9721)" />
  <g
     inkscape:groupmode="layer"
     id="layer4"
     inkscape:label="FLECHE"
     transform="translate(-55.778021,-553.9721)">
    <path
       style="fill:none;fill-rule:evenodd;stroke:#000000;stroke-width:1px;stroke-linecap:butt;stroke-linejoin:miter;stroke-opacity:1"
       d="M 249.99997,682.36221 Z"
       id="path4190"
       inkscape:connector-curvature="0" />
    <path
       style="fill:none;fill-rule:evenodd;stroke:#b95e06;stroke-width:10.19999981;stroke-linecap:butt;stroke-linejoin:miter;stroke-miterlimit:4;stroke-dasharray:none;stroke-opacity:1"
       d="M 198.91351,663.52601 V 770.01035 Z"
       id="path4312"
       inkscape:connector-curvature="0" />
    <g
       id="g4184"
       transform="rotate(169.31542,388.36458,560.51772)"
       style="fill:none;fill-opacity:0.60784314;stroke:#b95e06;stroke-width:10.19999981;stroke-miterlimit:4;stroke-dasharray:none;stroke-opacity:1">
      <g
         id="g4180"
         style="fill:none;fill-opacity:0.60784314;stroke:#b95e06;stroke-width:10.19999981;stroke-miterlimit:4;stroke-dasharray:none;stroke-opacity:1"
         transform="rotate(11.83777,572.00032,494.18946)">
        <path
           inkscape:connector-curvature="0"
           id="path4265"
           d="m 565.8611,468.1957 27.09946,21.97958 27.53293,-22.93245"
           style="fill:none;fill-opacity:0.60784314;fill-rule:evenodd;stroke:#b95e06;stroke-width:10.19999981;stroke-linecap:butt;stroke-linejoin:miter;stroke-miterlimit:4;stroke-dasharray:none;stroke-opacity:1"
           sodipodi:nodetypes="ccc" />
      </g>
    </g>
  </g>
</svg>
